<?xml version="1.0" encoding="UTF-8" standalone="no"?>
<svg
   xmlns:dc="http://purl.org/dc/elements/1.1/"
   xmlns:cc="http://creativecommons.org/ns#"
   xmlns:rdf="http://www.w3.org/1999/02/22-rdf-syntax-ns#"
   xmlns:svg="http://www.w3.org/2000/svg"
   xmlns="http://www.w3.org/2000/svg"
   xmlns:sodipodi="http://sodipodi.sourceforge.net/DTD/sodipodi-0.dtd"
   xmlns:inkscape="http://www.inkscape.org/namespaces/inkscape"
   height="16"
   width="16"
   version="1.1"
   id="svg6"
   sodipodi:docname="copy.svg"
   inkscape:version="0.92.4 5da689c313, 2019-01-14">
  <metadata
     id="metadata12">
    <rdf:RDF>
      <cc:Work
         rdf:about="">
        <dc:format>image/svg+xml</dc:format>
        <dc:type
           rdf:resource="http://purl.org/dc/dcmitype/StillImage" />
      </cc:Work>
    </rdf:RDF>
  </metadata>
  <defs
     id="defs10" />
  <sodipodi:namedview
     pagecolor="#ffffff"
     bordercolor="#666666"
     borderopacity="1"
     objecttolerance="10"
     gridtolerance="10"
     guidetolerance="10"
     inkscape:pageopacity="0"
     inkscape:pageshadow="2"
     inkscape:window-width="923"
     inkscape:window-height="480"
     id="namedview8"
     showgrid="false"
     inkscape:zoom="14.75"
     inkscape:cx="8"
     inkscape:cy="8"
     inkscape:window-x="0"
     inkscape:window-y="0"
     inkscape:window-maximized="0"
     inkscape:current-layer="svg6" />
  <path
     inkscape:connector-curvature="0"
     id="path2"
     style="color:#bebebe;overflow:visible;fill:#31363b;marker:none;fill-opacity:1"
     overflow="visible"
     d="M 2,0 C 2,0 1,0 1,1 v 10 c 0,1 1,1 1,1 H 4 V 11 H 2.5 C 2.5,11 2,11 2,10.5 v -9 C 2,1.5 2,1 2.5,1 h 7 C 9.5,1 10,1 10,1.5 V 3 h 1 V 1 C 11,0 10,0 10,0 Z M 6,4 C 6,4 5,4 5,5 v 10 c 0,1 1,1 1,1 h 8 c 0,0 1,0 1,-1 V 5 C 15,4 14,4 14,4 Z m 0.5,1 h 7 c 0,0 0.5,0 0.5,0.5 v 9 C 14,15 13.5,15 13.5,15 h -7 C 6.5,15 6,15 6,14.5 v -9 C 6,5.5 6,5 6.5,5 Z M 7.25,6 A 0.25,0.25 0 0 0 7,6.25 v 0.5 C 7,6.889 7.112,7 7.25,7 h 5.5 A 0.25,0.25 0 0 0 13,6.75 V 6.25 A 0.25,0.25 0 0 0 12.75,6 Z m 0,2 A 0.25,0.25 0 0 0 7,8.25 v 0.5 C 7,8.889 7.112,9 7.25,9 h 5.5 A 0.25,0.25 0 0 0 13,8.75 V 8.25 A 0.25,0.25 0 0 0 12.75,8 Z m 0,2 A 0.25,0.25 0 0 0 7,10.25 v 0.5 C 7,10.889 7.112,11 7.25,11 h 2.5 A 0.25,0.25 0 0 0 10,10.75 v -0.5 A 0.25,0.25 0 0 0 9.75,10 Z" />
</svg>
